<svg width="512" height="512" viewBox="0 0 512 512" fill="none" xmlns="http://www.w3.org/2000/svg">
<g clip-path="url(#clip0)">
<path d="M18.972 209.655C12.636 209.655 7.5 214.791 7.5 221.127V444.261C7.5 466.087 25.193 483.78 47.019 483.78H212.71C217.68 483.78 222.061 487.038 223.492 491.798L225.501 496.482C226.931 501.241 231.313 504.5 236.283 504.5H275.719C280.689 504.5 285.07 501.242 286.501 496.482L288.51 491.798C289.94 487.039 294.322 483.78 299.292 483.78H464.983C486.809 483.78 504.502 466.087 504.502 444.261V221.127C504.502 214.791 499.366 209.655 493.03 209.655H314.006L255.436 289.397L189.724 209.655H18.972Z" fill="#80E29D"/>
<path d="M493.028 209.655H468.186C474.522 209.655 479.658 214.791 479.658 221.127V444.261C479.658 466.087 461.965 483.78 440.139 483.78H464.981C486.807 483.78 504.5 466.087 504.5 444.261V221.127C504.5 214.791 499.364 209.655 493.028 209.655V209.655Z" fill="#66B49D"/>
<path d="M456.222 440.373H281.723C267.517 440.373 256 428.857 256 414.65L226 402.97V238.631L256 225.89C256 195.87 280.336 171.534 310.356 171.534H456.221C459.986 171.534 463.039 174.586 463.039 178.352V433.555C463.039 437.321 459.987 440.373 456.222 440.373V440.373Z" fill="#FFF6F4"/>
<path d="M456.222 171.534H433.321C437.086 171.534 440.139 174.586 440.139 178.352V433.555C440.139 437.32 437.087 440.373 433.321 440.373H456.222C459.987 440.373 463.04 437.321 463.04 433.555V178.352C463.039 174.587 459.987 171.534 456.222 171.534Z" fill="#D8E2F1"/>
<path d="M230.277 440.373H55.7789C52.0139 440.373 48.9609 437.321 48.9609 433.555V178.352C48.9609 174.587 52.0129 171.534 55.7789 171.534H201.644C231.664 171.534 256 195.87 256 225.89V414.65C256 428.857 244.484 440.373 230.277 440.373Z" fill="#FFF6F4"/>
<path d="M201.644 171.534H178.123C208.143 171.534 232.479 195.87 232.479 225.89V414.65C232.479 428.856 220.963 440.373 206.756 440.373H230.277C244.483 440.373 256 428.857 256 414.65V225.89C256 195.87 231.664 171.534 201.644 171.534Z" fill="#D8E2F1"/>
<path d="M256 196.724C279.596 208.844 312.047 204.673 336.483 198.463C336.995 200.594 337.42 202.758 337.765 204.949C333.699 179.051 317.635 157.138 295.428 145.087C286.012 139.977 280.126 130.149 280.126 119.436V75.432H231.874V119.436C231.874 130.149 225.988 139.978 216.572 145.087C196.758 155.839 181.836 174.444 175.96 196.724C175.962 196.723 213.088 174.683 256 196.724Z" fill="#D3EFFB"/>
<path d="M280.126 75.432H261.264V119.436C261.264 130.149 267.15 139.978 276.566 145.087C298.001 156.719 313.714 177.541 318.437 202.266C324.737 201.224 330.82 199.901 336.472 198.465C326.402 156.582 295.126 147.199 287.707 139.031C282.834 133.666 280.126 126.691 280.126 119.435V75.432Z" fill="#B1E4F9"/>
<path d="M291.922 75.432H220.078C216.123 75.432 212.917 72.226 212.917 68.271V51.203C212.917 47.248 216.123 44.042 220.078 44.042H291.922C295.877 44.042 299.083 47.248 299.083 51.203V68.27C299.084 72.226 295.877 75.432 291.922 75.432V75.432Z" fill="#B1E4F9"/>
<path d="M175.959 196.724C174.177 203.479 173.217 210.568 173.217 217.883C173.217 242.929 184.341 265.377 201.917 280.558C204.64 282.909 208.12 284.202 211.717 284.202H300.282C303.88 284.202 307.36 282.91 310.082 280.558C327.658 265.378 338.782 242.93 338.782 217.883C338.782 211.193 337.981 204.692 336.483 198.463C312.046 204.673 279.596 208.844 256 196.724C213.087 174.683 175.96 196.724 175.959 196.724V196.724Z" fill="#80E29D"/>
<path d="M336.484 198.463C330.829 199.9 324.742 201.224 318.437 202.266C324.06 231.701 313.498 261.317 291.221 280.557C288.498 282.908 285.018 284.201 281.421 284.201H300.283C303.881 284.201 307.361 282.909 310.083 280.557C333.683 260.174 343.722 228.559 336.484 198.463V198.463Z" fill="#66B49D"/>
<path d="M504.5 365.776C508.643 365.776 512 362.419 512 358.276V221.127C512 210.666 503.489 202.155 493.028 202.155H470.54V178.351C470.54 170.456 464.117 164.034 456.222 164.034H328.468C320.759 153.662 310.785 144.887 299.006 138.495C291.986 134.686 287.626 127.383 287.626 119.435V82.932H291.923C300.007 82.932 306.584 76.355 306.584 68.271V51.203C306.584 43.119 300.007 36.542 291.923 36.542H270.994C266.851 36.542 263.494 39.899 263.494 44.042C263.494 48.185 266.851 51.542 270.994 51.542H291.584V67.932H220.417V51.542H241.007C245.149 51.542 248.507 48.185 248.507 44.042C248.507 39.899 245.149 36.542 241.007 36.542H220.078C211.994 36.542 205.417 43.119 205.417 51.203V68.27C205.417 76.354 211.994 82.931 220.078 82.931H224.374V119.435C224.374 127.382 220.014 134.686 212.995 138.495C201.216 144.887 191.242 153.662 183.533 164.034H55.779C47.884 164.034 41.461 170.457 41.461 178.351V202.155H18.972C8.511 202.155 0 210.666 0 221.127V444.262C0 470.189 21.093 491.282 47.019 491.282H212.71C215.63 491.282 216.228 493.893 216.599 494.756L218.461 499.097C220.996 506.836 228.098 512.001 236.282 512.001H275.719C283.903 512.001 291.004 506.835 293.54 499.097C295.416 494.686 295.487 494.642 295.691 493.959C296.172 492.357 297.619 491.282 299.29 491.282H464.981C490.907 491.282 512 470.189 512 444.262V388.263C512 384.12 508.643 380.763 504.5 380.763C500.357 380.763 497 384.12 497 388.263V444.262C497 461.917 482.637 476.282 464.981 476.282H299.29C291.106 476.282 284.004 481.448 281.469 489.186C279.586 493.614 279.528 493.626 279.318 494.324C278.837 495.925 277.39 497.001 275.719 497.001H236.282C234.611 497.001 233.164 495.926 232.683 494.325C232.472 493.623 232.36 493.485 230.532 489.187C227.997 481.448 220.895 476.282 212.71 476.282H47.019C29.364 476.282 15 461.918 15 444.262V221.127C15 218.937 16.782 217.155 18.972 217.155H41.46V433.555C41.46 441.45 47.883 447.872 55.778 447.872H94.774C98.916 447.872 102.274 444.515 102.274 440.372C102.274 436.229 98.916 432.872 94.774 432.872H56.461V179.034H174.506C168.906 190.779 165.859 203.731 165.733 217.024H98.948C94.806 217.024 91.448 220.381 91.448 224.524C91.448 228.667 94.806 232.024 98.948 232.024H166.834C168.255 240.997 171.014 249.66 174.989 257.739H98.948C94.806 257.739 91.448 261.096 91.448 265.239C91.448 269.382 94.806 272.739 98.948 272.739H184.303C188.036 277.616 192.282 282.146 197.014 286.233C201.096 289.759 206.318 291.701 211.717 291.701H248.5V414.65C248.5 424.698 240.325 432.873 230.277 432.873H124.761C120.619 432.873 117.261 436.23 117.261 440.373C117.261 444.516 120.619 447.873 124.761 447.873H230.278C240.638 447.873 249.903 443.104 256.001 435.649C262.099 443.104 271.364 447.873 281.724 447.873H456.222C464.118 447.873 470.54 441.45 470.54 433.555V217.155H493.028C495.218 217.155 497 218.936 497 221.127V358.276C497 362.419 500.357 365.776 504.5 365.776V365.776ZM220.148 151.679C232.007 145.244 239.374 132.89 239.374 119.436V82.932H272.626V119.436C272.626 132.889 279.993 145.245 291.852 151.679C308.587 160.76 320.959 175.602 327.051 192.981C305.678 197.626 278.855 200.031 259.428 190.054C230.607 175.248 203.99 179.011 189.112 183.343C195.922 170.155 206.604 159.028 220.148 151.679V151.679ZM206.82 274.882C190.232 260.555 180.718 239.779 180.718 217.883C180.718 212.402 181.321 207.013 182.464 201.788C191.198 197.601 219.861 186.592 252.574 203.396C264.798 209.674 279.016 211.955 293.23 211.955C306.189 211.955 319.144 210.058 330.575 207.564C331.043 210.955 331.284 214.401 331.284 217.883C331.284 239.779 321.77 260.554 305.181 274.882C303.823 276.055 302.083 276.701 300.284 276.701H211.719C209.918 276.701 208.178 276.055 206.82 274.882V274.882ZM455.54 432.873H281.723C271.675 432.873 263.5 424.698 263.5 414.65V291.701H300.282C305.68 291.701 310.902 289.76 314.984 286.233C319.717 282.146 323.963 277.616 327.695 272.739H413.051C417.194 272.739 420.551 269.382 420.551 265.239C420.551 261.096 417.194 257.739 413.051 257.739H337.01C340.986 249.661 343.744 240.997 345.165 232.024H413.052C417.195 232.024 420.552 228.667 420.552 224.524C420.552 220.381 417.195 217.024 413.052 217.024H346.268C346.143 203.789 343.173 190.941 337.495 179.034H455.54V432.873Z" fill="black"/>
<path d="M248.5 468.49V472.999C248.5 477.142 251.858 480.499 256 480.499C260.142 480.499 263.5 477.142 263.5 472.999V468.49C263.5 464.347 260.142 460.99 256 460.99C251.858 460.99 248.5 464.348 248.5 468.49Z" fill="black"/>
<path d="M98.948 313.453H206.012C210.154 313.453 213.512 310.096 213.512 305.953C213.512 301.81 210.154 298.453 206.012 298.453H98.948C94.806 298.453 91.448 301.81 91.448 305.953C91.448 310.096 94.806 313.453 98.948 313.453V313.453Z" fill="black"/>
<path d="M98.948 354.168H206.012C210.154 354.168 213.512 350.811 213.512 346.668C213.512 342.525 210.154 339.168 206.012 339.168H98.948C94.806 339.168 91.448 342.525 91.448 346.668C91.448 350.811 94.806 354.168 98.948 354.168V354.168Z" fill="black"/>
<path d="M98.948 394.883H206.012C210.154 394.883 213.512 391.526 213.512 387.383C213.512 383.24 210.154 379.883 206.012 379.883H98.948C94.806 379.883 91.448 383.24 91.448 387.383C91.448 391.526 94.806 394.883 98.948 394.883V394.883Z" fill="black"/>
<path d="M413.052 298.453H305.988C301.845 298.453 298.488 301.81 298.488 305.953C298.488 310.096 301.845 313.453 305.988 313.453H413.052C417.195 313.453 420.552 310.096 420.552 305.953C420.552 301.81 417.195 298.453 413.052 298.453Z" fill="black"/>
<path d="M413.052 339.168H305.988C301.845 339.168 298.488 342.525 298.488 346.668C298.488 350.811 301.845 354.168 305.988 354.168H413.052C417.195 354.168 420.552 350.811 420.552 346.668C420.552 342.525 417.195 339.168 413.052 339.168Z" fill="black"/>
<path d="M413.052 379.883H305.988C301.845 379.883 298.488 383.24 298.488 387.383C298.488 391.526 301.845 394.883 305.988 394.883H413.052C417.195 394.883 420.552 391.526 420.552 387.383C420.552 383.24 417.195 379.883 413.052 379.883Z" fill="black"/>
<path d="M230.025 29.505C234.167 29.505 237.525 26.148 237.525 22.005V7.5C237.525 3.357 234.167 0 230.025 0C225.883 0 222.525 3.357 222.525 7.5V22.005C222.525 26.147 225.883 29.505 230.025 29.505Z" fill="black"/>
<path d="M256 29.505C260.142 29.505 263.5 26.148 263.5 22.005V7.5C263.5 3.357 260.142 0 256 0C251.858 0 248.5 3.357 248.5 7.5V22.005C248.5 26.147 251.858 29.505 256 29.505Z" fill="black"/>
<path d="M281.975 29.505C286.118 29.505 289.475 26.148 289.475 22.005V7.5C289.475 3.357 286.118 0 281.975 0C277.832 0 274.475 3.357 274.475 7.5V22.005C274.475 26.147 277.833 29.505 281.975 29.505Z" fill="black"/>
<path d="M216.956 221.225C220.603 219.261 221.967 214.712 220.002 211.066L218.832 208.893C216.868 205.246 212.318 203.882 208.672 205.847C205.025 207.811 203.661 212.36 205.626 216.006L206.796 218.179C208.764 221.832 213.317 223.186 216.956 221.225Z" fill="black"/>
<path d="M311.579 232.242L312.409 230.069C313.888 226.199 311.949 221.864 308.08 220.386C304.21 218.906 299.875 220.846 298.397 224.715L297.567 226.888C296.088 230.758 298.027 235.093 301.896 236.571C305.773 238.054 310.104 236.102 311.579 232.242Z" fill="black"/>
<path d="M268.157 245.824C267.834 241.694 264.228 238.597 260.095 238.931C255.966 239.254 252.88 242.864 253.203 246.993L253.373 249.166C253.696 253.299 257.311 256.382 261.435 256.059C265.564 255.736 268.65 252.126 268.328 247.997L268.157 245.824Z" fill="black"/>
<path d="M223.08 248.076C221.117 244.428 216.566 243.062 212.921 245.028C209.274 246.992 207.909 251.54 209.873 255.187L211.043 257.36C212.397 259.877 214.982 261.305 217.653 261.305C218.853 261.305 220.071 261.017 221.202 260.408C224.849 258.444 226.214 253.896 224.25 250.249L223.08 248.076Z" fill="black"/>
</g>
<defs>
<clipPath id="clip0">
<rect width="512" height="512" fill="white"/>
</clipPath>
</defs>
</svg>
